<svg xmlns="http://www.w3.org/2000/svg" width="24" height="24" viewBox="0 0 24 24">
    <g fill="none" fill-rule="evenodd">
        <path d="M0 0h24v24H0z"/>
        <path fill="#fff" fill-rule="nonzero" d="M12.5 17.813a6.905 6.905 0 0 0 6.906-6.907A6.905 6.905 0 0 0 12.5 4a6.905 6.905 0 0 0-6.906 6.906 6.905 6.905 0 0 0 6.906 6.906zm-.737-10.579v-.558a.55.55 0 0 1 .551-.551h.369a.55.55 0 0 1 .55.551v.565a2.618 2.618 0 0 1 1.429.511.372.372 0 0 1 .04.568l-.542.514c-.126.123-.315.127-.465.034a1.093 1.093 0 0 0-.59-.17h-1.292c-.3 0-.542.273-.542.608 0 .272.167.515.402.584l2.069.621c.853.256 1.45 1.076 1.45 1.996 0 1.129-.876 2.042-1.962 2.072v.557a.55.55 0 0 1-.55.551h-.37a.55.55 0 0 1-.55-.55v-.565a2.618 2.618 0 0 1-1.428-.511.372.372 0 0 1-.04-.568l.541-.515c.126-.123.316-.126.465-.033.18.113.379.17.591.17h1.292c.298 0 .54-.273.54-.608 0-.273-.165-.515-.4-.585l-2.07-.62c-.853-.256-1.45-1.076-1.45-1.996.003-1.129.876-2.042 1.962-2.072zm8.175 8.454h-1.08a8.047 8.047 0 0 1-2.423 2.124h2.118c.176 0 .319.12.319.266v.531c0 .146-.143.266-.32.266H6.445c-.176 0-.319-.12-.319-.266v-.53c0-.147.143-.267.319-.267h2.118a8.087 8.087 0 0 1-2.424-2.125H5.062c-.587 0-1.062.475-1.062 1.063v3.188C4 20.524 4.475 21 5.062 21h14.875c.588 0 1.063-.475 1.063-1.063V16.75c0-.588-.475-1.063-1.063-1.063z"/>
    </g>
</svg>
