<svg xmlns="http://www.w3.org/2000/svg" xmlns:xlink="http://www.w3.org/1999/xlink" viewBox="2759 839 100 100">
  <defs>
    <style>
      .cls-1 {
        clip-path: url(#clip-Artboard_1);
      }

      .cls-2 {
        fill: #231f20;
      }

      .cls-3 {
        fill: #00a7ff;
      }

      .cls-4 {
        fill: #fff;
      }
    </style>
    <clipPath id="clip-Artboard_1">
      <rect x="2759" y="839" width="100" height="100"/>
    </clipPath>
  </defs>
  <g id="Artboard_1" data-name="Artboard – 1" class="cls-1">
    <rect class="cls-4" x="2759" y="839" width="100" height="100"/>
    <g id="Group_3579" data-name="Group 3579" transform="translate(2766.5 854.77)">
      <path id="Path_810" data-name="Path 810" class="cls-2" d="M79.658,0H5.337A5.278,5.278,0,0,0,0,5.337V63.128a5.278,5.278,0,0,0,5.337,5.337H79.658A5.278,5.278,0,0,0,85,63.128V5.337A5.2,5.2,0,0,0,79.658,0ZM81.22,5.337v8.07H73.8l5.076-9.5h.911A1.444,1.444,0,0,1,81.22,5.337ZM65.6,13.407l5.076-9.5h5.206l-5.076,9.5Zm-8.33,0,5.076-9.5h5.337l-5.076,9.5Zm-8.2,0,5.076-9.5h5.206l-5.076,9.5Zm-8.2,0,5.206-9.5h5.206l-5.076,9.5Zm-8.07,0,5.076-9.5h5.206l-5.076,9.5Zm-8.2,0,5.076-9.5h5.206l-5.076,9.5Zm-8.2,0,5.076-9.5h5.206l-5.076,9.5Zm-8.2,0,5.206-9.5h5.206l-5.076,9.5ZM5.337,3.9h5.076l-5.076,9.5H3.9V5.337A1.444,1.444,0,0,1,5.337,3.9ZM79.658,64.69H5.337A1.444,1.444,0,0,1,3.9,63.258V16.01H81.22V63.128A1.5,1.5,0,0,1,79.658,64.69Z"/>
      <path id="Path_811" data-name="Path 811" class="cls-3" d="M44.013,29.86h0L28.394,19.968a1.773,1.773,0,0,0-1.952,0A2.031,2.031,0,0,0,25.4,21.66V44.829a2.031,2.031,0,0,0,1.041,1.692,2.413,2.413,0,0,0,.911.26,2.452,2.452,0,0,0,1.041-.26l15.489-9.762a.127.127,0,0,0,.13-.13,4.23,4.23,0,0,0,0-6.768ZM41.67,33.374l-12.5,7.81V25.044l12.5,7.81a.478.478,0,0,1,.13.39A.127.127,0,0,1,41.67,33.374Z" transform="translate(7.661 5.934)"/>
    </g>
  </g>
</svg>
