<?xml version="1.0" encoding="UTF-8"?>
<svg width="24px" height="24px" viewBox="0 0 24 24" version="1.1" xmlns="http://www.w3.org/2000/svg" xmlns:xlink="http://www.w3.org/1999/xlink">
    <!-- Generator: Sketch 52.1 (67048) - http://www.bohemiancoding.com/sketch -->
    <title>Rectangle</title>
    <desc>Created with Sketch.</desc>
    <g id="Page-1" stroke="none" stroke-width="1" fill="none" fill-rule="evenodd">
        <g id="Explore_04b" transform="translate(-18.000000, -286.000000)">
            <g id="Group-5" transform="translate(18.000000, 286.000000)">
                <rect id="Rectangle" x="0" y="0" width="24" height="24"></rect>
                <g id="file-alt" transform="translate(6.000000, 4.000000)" fill="#00a7ff" fill-rule="nonzero">
                    <path d="M7.58333333,4.39488636 L7.58333333,0 L0.8125,0 C0.362239583,0 0,0.345774148 0,0.775568182 L0,15.7698864 C0,16.1996804 0.362239583,16.5454545 0.8125,16.5454545 L12.1875,16.5454545 C12.6377604,16.5454545 13,16.1996804 13,15.7698864 L13,5.17045455 L8.39583333,5.17045455 C7.94895833,5.17045455 7.58333333,4.82144886 7.58333333,4.39488636 Z M9.75,12.0213068 C9.75,12.2345881 9.5671875,12.4090909 9.34375,12.4090909 L3.65625,12.4090909 C3.4328125,12.4090909 3.25,12.2345881 3.25,12.0213068 L3.25,11.7627841 C3.25,11.5495028 3.4328125,11.375 3.65625,11.375 L9.34375,11.375 C9.5671875,11.375 9.75,11.5495028 9.75,11.7627841 L9.75,12.0213068 Z M9.75,9.953125 C9.75,10.1664063 9.5671875,10.3409091 9.34375,10.3409091 L3.65625,10.3409091 C3.4328125,10.3409091 3.25,10.1664063 3.25,9.953125 L3.25,9.69460227 C3.25,9.48132102 3.4328125,9.30681818 3.65625,9.30681818 L9.34375,9.30681818 C9.5671875,9.30681818 9.75,9.48132102 9.75,9.69460227 L9.75,9.953125 Z M9.75,7.62642045 L9.75,7.88494318 C9.75,8.09822443 9.5671875,8.27272727 9.34375,8.27272727 L3.65625,8.27272727 C3.4328125,8.27272727 3.25,8.09822443 3.25,7.88494318 L3.25,7.62642045 C3.25,7.4131392 3.4328125,7.23863636 3.65625,7.23863636 L9.34375,7.23863636 C9.5671875,7.23863636 9.75,7.4131392 9.75,7.62642045 Z M13,3.93924006 L13,4.13636364 L8.66666667,4.13636364 L8.66666667,0 L8.87317708,0 C9.08984375,0 9.29635417,0.0807883523 9.44869792,0.226207386 L12.7630208,3.3931108 C12.9153646,3.53852983 13,3.73565341 13,3.93924006 Z" id="Shape"></path>
                </g>
            </g>
        </g>
    </g>
</svg>
