<svg xmlns="http://www.w3.org/2000/svg" width="14" height="14" viewBox="0 0 14 14">
    <g fill="none" fill-rule="evenodd">
        <path d="M-3-3h20v20H-3z"/>
        <path fill="#2F2F2F" fill-rule="nonzero" d="M9.527 7l3.79-3.79a1.192 1.192 0 0 0 0-1.685l-.842-.843a1.192 1.192 0 0 0-1.684 0L7 4.472 3.21.683a1.192 1.192 0 0 0-1.685 0l-.843.843a1.192 1.192 0 0 0 0 1.684L4.472 7l-3.79 3.79a1.192 1.192 0 0 0 0 1.685l.843.843c.465.465 1.22.465 1.684 0L7 9.528l3.79 3.79c.466.465 1.22.465 1.685 0l.843-.843a1.192 1.192 0 0 0 0-1.684L9.528 7z"/>
    </g>
</svg>
