<svg xmlns="http://www.w3.org/2000/svg" xmlns:xlink="http://www.w3.org/1999/xlink" width="569" height="350" viewBox="0 0 569 350">
    <defs>
        <path id="a" d="M.414.211h39.348v6.85H.414z"/>
        <path id="c" d="M.273.909h104.876v18.255H.273z"/>
        <path id="e" d="M.939.904h162.847V29.25H.94z"/>
    </defs>
    <g fill="none" fill-rule="evenodd">
        <path fill="#DFEBED" d="M452.546 21.34l-.034.001C446.387 8.953 433.64.41 418.86.41c-20.127 0-36.506 15.817-37.455 35.67-.03 0-.06-.004-.091-.004-5.918 0-11.314 2.183-15.462 5.77h126.784c-2.856-5.08-8.238-8.551-14.489-8.551-1.821 0-3.54.363-5.18.9-3.655-7.596-11.413-12.854-20.42-12.854"/>
        <path fill="#C6DBE0" d="M451.036 335.726c-5.45-34.083-21.379-124.928-31.977-187.63-3.115-18.431-5.772-34.44-7.564-45.85-1.154-7.343-6.002-13.311-12.474-16.137 5.069 2.704 8.39 8.2 7.958 14.355-.814 11.599-2.094 28.459-3.614 48.01-4.847 62.344-12.142 152.134-14.659 186.665-.554 7.595-6.683 13.53-14.216 13.947v.025h65.107c7.127 0 12.562-6.36 11.44-13.385"/>
        <path fill="#B6C9CC" d="M419.895 153.038l-.836-4.942c-3.115-18.43-5.772-34.44-7.565-45.848-1.153-7.345-6-13.313-12.473-16.14 5.07 2.705 8.391 8.203 7.958 14.356-.814 11.599-2.095 28.458-3.614 48.01-4.847 62.343-12.142 152.134-14.66 186.665-.553 7.595-6.683 13.53-14.214 13.947v.025h29.858c4.59-58.303 10.35-130.274 15.546-196.073"/>
        <path fill="#DFEBED" d="M43.912 349.111h65.112v-112.15H43.912z"/>
        <path fill="#D3E3E7" d="M92.746 349.111h16.278v-112.15H92.746zM60.19 349.111h16.278v-112.15H60.19z"/>
        <path fill="#DFEBED" d="M68.329 227.414h32.555v9.547H52.05v-9.547z"/>
        <path fill="#D3E3E7" d="M157.858 349.111H92.745v-51.01h65.113z"/>
        <path fill="#DFEBED" d="M109.024 349.111H92.745v-51.01h16.279zM141.58 349.111H125.3v-51.01h16.279z"/>
        <path fill="#D3E3E7" d="M133.44 288.262h-32.556v9.84H149.718v-9.84z"/>
        <g transform="translate(88.936 342.05)">
            <mask id="b" fill="#fff">
                <use xlink:href="#a"/>
            </mask>
            <path fill="#26E475" d="M21.538 3.656a8.555 8.555 0 0 1 2.626-.412c2.084 0 3.993.74 5.48 1.972.675.558 1.591.726 2.389.365a6.842 6.842 0 0 1 3.883-.521 6.802 6.802 0 0 1 3.846 2H.414C2.236 3.027 6.29.212 11.012.212c2.909 0 5.567 1.066 7.606 2.827.808.7 1.902.945 2.92.618" mask="url(#b)"/>
        </g>
        <g transform="translate(0 329.947)">
            <mask id="d" fill="#fff">
                <use xlink:href="#c"/>
            </mask>
            <path fill="#26E475" d="M56.576 10.09a22.762 22.762 0 0 1 7-1.098 22.828 22.828 0 0 1 14.607 5.257c1.795 1.487 4.24 1.934 6.365.974 3.086-1.396 6.627-1.963 10.352-1.392 3.983.61 7.55 2.553 10.249 5.333H.273C5.13 8.411 15.935.91 28.52.91a30.91 30.91 0 0 1 20.273 7.537c2.153 1.86 5.07 2.518 7.782 1.644" mask="url(#d)"/>
        </g>
        <path fill="#DFEBED" d="M106.95 114.759h.023a26.388 26.388 0 0 1 23.646-14.555c14.142 0 25.651 10.999 26.318 24.803l.064-.003c4.159 0 7.95 1.519 10.864 4.012H78.781c2.008-3.531 5.79-5.946 10.181-5.946 1.28 0 2.487.253 3.64.627a15.927 15.927 0 0 1 14.348-8.938"/>
        <path fill="#F4F7F9" d="M146.237 147.339c-4.731 61.089-11.826 149.415-14.509 185.593-.648 8.739 6.281 16.18 15.06 16.18h227.497c7.915 0 14.487-6.095 15.06-13.973 2.533-34.74 9.903-125.416 14.749-187.8H146.237z"/>
        <path fill="#E3EFF3" d="M151.305 162.746a.83.83 0 0 1 .98 0l10.085 7.355a.83.83 0 0 0 .98 0l10.087-7.355a.83.83 0 0 1 .98 0l10.085 7.355a.83.83 0 0 0 .98 0l10.08-7.355a.83.83 0 0 1 .98 0l10.084 7.355a.83.83 0 0 0 .978 0l10.084-7.355a.83.83 0 0 1 .979 0l10.086 7.355a.83.83 0 0 0 .98 0l10.082-7.355a.83.83 0 0 1 .98 0l10.086 7.355a.83.83 0 0 0 .98 0l10.087-7.355a.83.83 0 0 1 .979 0l10.087 7.355a.83.83 0 0 0 .98 0l10.085-7.355a.83.83 0 0 1 .98 0l10.088 7.355a.83.83 0 0 0 .98 0l10.088-7.355a.83.83 0 0 1 .98 0l10.088 7.355a.83.83 0 0 0 .978 0l10.09-7.355a.83.83 0 0 1 .979 0l10.086 7.355a.83.83 0 0 0 .978 0l10.087-7.355a.83.83 0 0 1 .979 0l10.09 7.355a.83.83 0 0 0 .978 0l10.093-7.355a.83.83 0 0 1 .979 0l10.09 7.355a.832.832 0 0 0 .98 0l10.097-7.356a.832.832 0 0 1 .978 0l6.76 4.925c.55-7.02 1.084-13.83 1.589-20.331H146.236c-.5 6.475-1.03 13.26-1.575 20.252l6.644-4.845z"/>
        <path fill="#00A7FF" d="M392.556 84.336h-227.57c-7.93 0-14.507 6.119-15.064 14.013-.817 11.61-2.167 29.402-3.785 50.27h257.858c1.525-19.616 2.808-36.526 3.626-48.154.612-8.72-6.306-16.129-15.065-16.129"/>
        <path fill="#DFEBED" d="M41.834 174.06h.014c2.687-5.431 8.276-9.178 14.755-9.178 8.825 0 16.005 6.935 16.422 15.639l.04-.002c2.594 0 4.96.958 6.778 2.53H24.258c1.252-2.227 3.612-3.749 6.352-3.749.799 0 1.552.158 2.271.394a9.93 9.93 0 0 1 8.953-5.635"/>
        <path fill="#00A7FF" d="M252.435 242.34c-.125 18.673 4.395 27.572 11.804 27.572 7.408 0 11.427-9.275 11.427-27.823 0-18.045-3.892-27.57-11.552-27.57-7.032 0-11.804 8.897-11.679 27.821m42.318-.5c0 25.189-10.171 42.484-31.016 42.484-21.096 0-30.389-18.924-30.514-41.984 0-23.56 10.046-42.234 31.142-42.234 21.849 0 30.388 19.426 30.388 41.733M337.947 249.233v-18.046c0-4.888.251-9.901.628-15.164h-.502c-2.637 5.263-4.773 10.026-7.535 15.164l-10.925 17.795v.251h18.334zm0 33.712V263.52h-36.164v-12.406l30.89-49.629h23.357v47.748h9.794v14.287h-9.794v19.425h-18.083z"/>
        <path fill="#26E475" d="M299.906 342.818c1.53-.494 3.16-.762 4.855-.762 3.851 0 7.38 1.37 10.13 3.646 1.245 1.031 2.94 1.342 4.414.675a12.65 12.65 0 0 1 7.18-.965c2.761.423 5.235 1.77 7.107 3.698h-72.734c3.37-7.456 10.863-12.659 19.592-12.659 5.375 0 10.289 1.97 14.059 5.227 1.493 1.29 3.517 1.746 5.397 1.14"/>
        <g transform="translate(405.266 319.86)">
            <mask id="f" fill="#fff">
                <use xlink:href="#e"/>
            </mask>
            <path fill="#26E475" d="M76.36 15.16a35.361 35.361 0 0 0-10.868-1.705 35.445 35.445 0 0 0-22.683 8.164c-2.787 2.308-6.583 3.003-9.883 1.51-4.792-2.167-10.289-3.047-16.074-2.16C10.668 21.915 5.13 24.931.94 29.25h162.848C156.243 12.553 139.467.904 119.923.904a47.994 47.994 0 0 0-31.478 11.703c-3.346 2.89-7.875 3.91-12.086 2.552" mask="url(#f)"/>
        </g>
        <path fill="#0096E6" d="M216.836 115.528c0 3.913-3.177 7.084-7.097 7.084-3.92 0-7.099-3.171-7.099-7.084 0-3.912 3.178-7.083 7.099-7.083 3.92 0 7.097 3.17 7.097 7.083M194.709 115.528c0 3.913-3.177 7.084-7.098 7.084-3.92 0-7.098-3.171-7.098-7.084 0-3.912 3.178-7.083 7.098-7.083s7.098 3.17 7.098 7.083M370.674 115.528c0 3.913-3.178 7.084-7.098 7.084s-7.099-3.171-7.099-7.084c0-3.912 3.179-7.083 7.1-7.083 3.92 0 7.097 3.17 7.097 7.083M348.546 115.528c0 3.913-3.177 7.084-7.097 7.084-3.92 0-7.099-3.171-7.099-7.084 0-3.912 3.178-7.083 7.099-7.083 3.92 0 7.097 3.17 7.097 7.083M239.193 101.237c-2.698 0-4.907 2.204-4.907 4.898 0 2.693 2.209 4.898 4.907 4.898h57.393c2.7 0 4.908-2.205 4.908-4.898 0-2.694-2.208-4.898-4.908-4.898h-57.393zM296.586 119.44h-57.393c-2.698 0-4.907 2.205-4.907 4.899 0 2.693 2.209 4.898 4.907 4.898h57.393c2.7 0 4.908-2.205 4.908-4.898 0-2.694-2.208-4.898-4.908-4.898"/>
        <path fill="#BFE9FF" d="M527.853 221.546a32.964 32.964 0 0 0-19.56 6.428c-14.731 10.82-17.885 31.51-7.043 46.211l22.956 31.132c1.81 2.454 5.484 2.454 7.293 0l22.957-31.132c10.84-14.702 7.688-35.391-7.043-46.21a32.957 32.957 0 0 0-19.56-6.429z"/>
        <path fill="#8FD8FF" d="M527.853 271.416c-9.336 0-16.905-7.553-16.905-16.871 0-9.32 7.569-16.873 16.905-16.873 9.336 0 16.905 7.554 16.905 16.873 0 9.318-7.569 16.871-16.905 16.871"/>
        <path fill="#26E475" d="M129.917 330.308a42.195 42.195 0 0 1 27.002 9.718c3.318 2.748 7.837 3.575 11.765 1.799 5.705-2.58 12.248-3.628 19.135-2.572 7.361 1.128 13.955 4.718 18.943 9.858H12.906c8.98-19.876 28.95-33.743 52.215-33.743 14.33 0 27.426 5.253 37.473 13.93 3.982 3.44 9.375 4.655 14.386 3.04a42.075 42.075 0 0 1 12.937-2.03z"/>
        <path fill="#0476BC" d="M187.611 112.188c-4.666 0-9.865-8.125-9.865-19.783 0-11.658 5.2-19.782 9.865-19.782 3.49 0 7.276 4.546 8.964 11.713h6.198c-2.044-10.416-7.975-17.765-15.162-17.765-8.932 0-15.93 11.347-15.93 25.834 0 14.488 6.998 25.835 15.93 25.835a3.029 3.029 0 0 0 3.032-3.026 3.029 3.029 0 0 0-3.032-3.026"/>
        <path fill="#0476BC" d="M209.739 112.188c-4.666 0-9.866-8.125-9.866-19.783 0-11.658 5.2-19.782 9.866-19.782 3.489 0 7.275 4.546 8.963 11.713h6.198c-2.044-10.416-7.974-17.765-15.161-17.765-8.932 0-15.93 11.347-15.93 25.834 0 14.488 6.998 25.835 15.93 25.835a3.029 3.029 0 0 0 3.032-3.026 3.029 3.029 0 0 0-3.032-3.026M341.967 112.188c-4.666 0-9.866-8.125-9.866-19.783 0-11.658 5.2-19.782 9.866-19.782 3.488 0 7.275 4.546 8.963 11.713h6.198c-2.044-10.416-7.975-17.765-15.161-17.765-8.932 0-15.93 11.347-15.93 25.834 0 14.488 6.998 25.835 15.93 25.835a3.029 3.029 0 0 0 3.032-3.026 3.029 3.029 0 0 0-3.032-3.026"/>
        <path fill="#0476BC" d="M364.094 112.188c-4.666 0-9.866-8.125-9.866-19.783 0-11.658 5.2-19.782 9.866-19.782 3.489 0 7.276 4.546 8.964 11.713h6.198c-2.045-10.416-7.975-17.765-15.162-17.765-8.932 0-15.93 11.347-15.93 25.834 0 14.488 6.998 25.835 15.93 25.835a3.029 3.029 0 0 0 3.032-3.026 3.029 3.029 0 0 0-3.032-3.026"/>
        <path fill="#00A7FF" d="M198.604 249.212l-.093-18.047c-.025-4.887.199-9.902.549-15.167l-.503.003c-2.61 5.276-4.72 10.05-7.455 15.203l-10.833 17.852.002.25 18.333-.094zm.175 33.71l-.101-19.424-36.164.187-.065-12.407 30.634-49.787 23.356-.12.247 47.748 9.794-.05.074 14.286-9.794.05.1 19.425-18.081.093z"/>
    </g>
</svg>
