<svg xmlns="http://www.w3.org/2000/svg" viewBox="-6253.435 9360.759 13.492 13.492">
  <defs>
    <style>
      .cls-1 {
        fill: white;
      }
    </style>
  </defs>
  <g id="Group_2566" data-name="Group 2566" transform="translate(-7226.414 8685.677)">
    <path id="Path_647" data-name="Path 647" class="cls-1" d="M21.551,11l-2,2,2.941,2.941,2-2Zm-2.492,2.492L11,21.551v2.941h2.941L22,16.432Z" transform="translate(961.979 664.082)"/>
  </g>
</svg>
