<svg xmlns="http://www.w3.org/2000/svg" xmlns:xlink="http://www.w3.org/1999/xlink" width="31" height="31" viewBox="0 0 31 31">
    <defs>
        <rect id="b" width="823" height="906" rx="2"/>
        <filter id="a" width="101.7%" height="101.5%" x="-.9%" y="-.6%" filterUnits="objectBoundingBox">
            <feOffset dy="2" in="SourceAlpha" result="shadowOffsetOuter1"/>
            <feGaussianBlur in="shadowOffsetOuter1" result="shadowBlurOuter1" stdDeviation="2"/>
            <feColorMatrix in="shadowBlurOuter1" values="0 0 0 0 0 0 0 0 0 0 0 0 0 0 0 0 0 0 0.02 0"/>
        </filter>
        <path id="d" d="M1 544h822v90H1z"/>
        <filter id="c" width="100.1%" height="103.3%" x="-.1%" y="-1.7%" filterUnits="objectBoundingBox">
            <feOffset dy="1" in="SourceAlpha" result="shadowOffsetOuter1"/>
            <feColorMatrix in="shadowOffsetOuter1" result="shadowMatrixOuter1" values="0 0 0 0 0.921568627 0 0 0 0 0.921568627 0 0 0 0 0.929411765 0 0 0 1 0"/>
            <feOffset dy="-1" in="SourceAlpha" result="shadowOffsetOuter2"/>
            <feColorMatrix in="shadowOffsetOuter2" result="shadowMatrixOuter2" values="0 0 0 0 0.921568627 0 0 0 0 0.921568627 0 0 0 0 0.929411765 0 0 0 1 0"/>
            <feMerge>
                <feMergeNode in="shadowMatrixOuter1"/>
                <feMergeNode in="shadowMatrixOuter2"/>
            </feMerge>
        </filter>
    </defs>
    <g fill="none" fill-rule="evenodd">
        <g transform="matrix(-1 0 0 1 300 -574)">
            <use fill="#000" filter="url(#a)" xlink:href="#b"/>
            <use fill="#FFF" xlink:href="#b"/>
        </g>
        <g transform="translate(-523 -574)">
            <use fill="#000" filter="url(#c)" xlink:href="#d"/>
            <use fill="#FFF" xlink:href="#d"/>
        </g>
        <g>
            <rect width="29.8" height="29.8" x=".6" y=".6" stroke="rgb(155, 155, 155)" stroke-width="1.2" rx="14.9" transform="rotate(-90 15.5 15.5)"/>
            <path stroke="rgb(155, 155, 155)" stroke-linecap="round" stroke-linejoin="round" d="M12 10h8"/>
            <path stroke="rgb(155, 155, 155)" stroke-linecap="round" stroke-linejoin="round" stroke-width="1.2" d="M12.786 16l3.12-3 3.165 2.899"/>
            <path stroke="rgb(155, 155, 155)" stroke-linecap="round" stroke-width="1.2" d="M15.91 21.91v-7.82"/>
        </g>
    </g>
</svg>
