<svg xmlns="http://www.w3.org/2000/svg" width="31" height="31" viewBox="0 0 31 31">
    <g fill="none" fill-rule="evenodd">
        <rect width="29.8" height="29.8" x=".6" y=".6" stroke="rgb(155, 155, 155)" stroke-width="1.2" rx="14.9" transform="rotate(-90 15.5 15.5)"/>
        <g stroke="rgb(155, 155, 155)" stroke-linecap="round">
            <path stroke-linejoin="round" d="M12 10h8"/>
            <g stroke-width="1.2">
                <path stroke-linejoin="round" d="M12.786 19l3.12 3 3.165-2.899"/>
                <path d="M15.91 13.09v7.82"/>
            </g>
        </g>
    </g>
</svg>
