<svg xmlns="http://www.w3.org/2000/svg" width="24" height="24" viewBox="0 0 24 24">
    <g fill="none" fill-rule="evenodd">
        <path d="M0 0h24v24H0z"/>
        <path fill="#0085CC" fill-rule="nonzero" d="M12.188 12a5.25 5.25 0 1 0 0-10.5 5.25 5.25 0 0 0 0 10.5zm3.929 1.337l-1.96 7.85-1.313-5.578 1.312-2.296H10.22l1.312 2.296-1.312 5.579-1.96-7.85C5.333 13.476 3 15.867 3 18.824v1.706A1.97 1.97 0 0 0 4.969 22.5h14.437a1.97 1.97 0 0 0 1.969-1.969v-1.706c0-2.957-2.334-5.348-5.258-5.488z"/>
    </g>
</svg>
