<?xml version="1.0" encoding="utf-8"?>
<!-- Generator: Adobe Illustrator 21.0.2, SVG Export Plug-In . SVG Version: 6.00 Build 0)  -->
<svg version="1.1" id="_7._Get_deals_and_benefits" xmlns="http://www.w3.org/2000/svg" xmlns:xlink="http://www.w3.org/1999/xlink"
	 x="0px" y="0px" viewBox="0 0 180 180" style="enable-background:new 0 0 180 180;" xml:space="preserve">
<style type="text/css">
	.st0{fill:#00A7FF;}
	.st1{fill:#0085CC;}
	.st2{fill:#D3E7ED;}
	.st3{fill:#4BF790;}
	.st4{fill:#BCD4E0;}
	.st5{fill:#00D159;}
	.st6{fill:#F4F7F9;}
</style>
<title>Illustrations for Juven.co</title>
<g>
	<path class="st0" d="M75.2,47.8l20-11.6C79.5,19.5,75.2,47.8,75.2,47.8z"/>
	<path class="st0" d="M75.2,47.8L55.2,59.4C48.6,37.4,75.2,47.8,75.2,47.8z"/>
	<path class="st1" d="M73.1,41.2l-2.6,1.5c-1.6,0.9-2.1,2.9-1.2,4.5l1.8,3.1l8.2-4.8l-1.8-3.1C76.7,40.8,74.7,40.3,73.1,41.2z"/>
	<path class="st0" d="M157.8,130.5c-0.4-0.2-0.9-0.1-1.1,0.2c0,0,0,0.1-0.1,0.1c-1.5,3.6-4.6,6.4-8.4,7.5
		c-11.8,3.9-11.4-16.2-28.3-8.9c-0.4,0.2-0.7,0.3-1.1,0.5v9.6c1.5-1.4,3.3-2.5,5.1-3.3c15.5-6.7,12.3,9.7,26.4,9.2
		c7.2-0.3,11.4-5.2,13.8-10c0.2-0.4,0.1-0.9-0.3-1.1L157.8,130.5z"/>
	<path class="st0" d="M21.8,130.7c0.5-0.3,1.1-0.2,1.5,0.3c0,0,0,0.1,0.1,0.1c1.6,3.5,4.6,6.1,8.2,7.2c11.8,3.9,11.4-16.2,28.3-8.9
		c0.4,0.2,0.7,0.3,1.1,0.5v9.6c-1.5-1.4-3.3-2.5-5.1-3.4c-15.5-6.7-12.3,9.7-26.4,9.2c-7-0.3-11.2-5-13.6-9.6
		c-0.3-0.6-0.1-1.3,0.4-1.6L21.8,130.7z"/>
	<path class="st2" d="M122,102.1H95.7v47.6h26.2c0.7,0,1.2-0.6,1.2-1.2l0,0v-45.2C123.2,102.7,122.6,102.2,122,102.1z"/>
	<path class="st2" d="M84.3,102.1H58c-0.7,0-1.2,0.6-1.2,1.2v45.1c0,0.7,0.6,1.2,1.2,1.2c0,0,0,0,0,0h26.2V102.1z"/>
	<rect x="84" y="102.1" class="st0" width="12" height="47.6"/>
	<path class="st2" d="M69.9,49.8L46.1,63.6c-0.7,0.4-1,1.3-0.6,2c0,0,0,0,0,0l7.4,12.8c0.4,0.7,1.3,1,2,0.6c0,0,0,0,0,0l23.8-13.7
		L69.9,49.8z"/>
	<path class="st2" d="M103.5,30.4L79.6,44.2l8.9,15.4l23.8-13.8c0.7-0.4,1-1.3,0.6-2c0,0,0,0,0,0L105.5,31
		C105.1,30.2,104.2,30,103.5,30.4C103.5,30.4,103.5,30.4,103.5,30.4z"/>
	<rect x="73.2" y="45.8" transform="matrix(0.866 -0.5 0.5 0.866 -16.7413 46.9291)" class="st0" width="12" height="17.8"/>
	<path class="st3" d="M113.1,82.4c0,0.2,0.1,0.3,0.3,0.3l24.1,2c0.4,0,0.8-0.3,0.8-0.7c0,0,0,0,0-0.1v-3.2c0-0.4-0.3-0.8-0.8-0.8
		c0,0,0,0-0.1,0l-24.1,2C113.2,82.1,113.1,82.3,113.1,82.4L113.1,82.4z"/>
	<path class="st3" d="M62,94c0.1,0.2,0,0.3-0.1,0.4l-19.8,13.8c-0.3,0.2-0.8,0.1-1.1-0.2c0,0,0,0,0,0l-1.6-2.8
		c-0.2-0.4-0.1-0.8,0.3-1L61.5,94C61.7,93.9,61.9,93.9,62,94L62,94z"/>
	<path class="st0" d="M60.1,87c0,0.2-0.1,0.3-0.3,0.3l-24.1,2c-0.4,0-0.8-0.3-0.8-0.7c0,0,0,0,0-0.1v-3.2c0-0.4,0.3-0.8,0.8-0.8
		c0,0,0,0,0.1,0l24.1,2C60,86.7,60.1,86.9,60.1,87L60.1,87z"/>
	<path class="st0" d="M111.2,75.4c0.1,0.2,0.3,0.2,0.4,0.1l21.9-10.3c0.4-0.2,0.5-0.6,0.4-1c0,0,0,0,0,0l-1.6-2.7
		c-0.2-0.4-0.7-0.5-1-0.3c0,0,0,0,0,0L111.3,75C111.1,75.1,111.1,75.3,111.2,75.4L111.2,75.4z"/>
	<path class="st2" d="M106,70.3c0.2,0.1,0.3,0,0.4-0.1l13.8-19.9c0.2-0.3,0.1-0.8-0.2-1.1c0,0,0,0,0,0l-2.7-1.6
		c-0.4-0.2-0.8-0.1-1,0.3c0,0,0,0,0,0l-10.3,21.9C105.8,70,105.9,70.2,106,70.3L106,70.3z"/>
	<rect x="37.5" y="71.9" class="st2" width="3.6" height="3.6"/>
	<rect x="38.1" y="116.9" class="st0" width="3.6" height="3.6"/>
	
		<rect x="131.2" y="48.7" transform="matrix(0.5408 -0.8412 0.8412 0.5408 18.5715 135.091)" class="st3" width="3.6" height="3.6"/>
	
		<rect x="68.7" y="87.5" transform="matrix(0.5355 -0.8445 0.8445 0.5355 -42.6359 101.0522)" class="st2" width="3.6" height="3.6"/>
	<rect x="139" y="69.9" transform="matrix(0.5355 -0.8445 0.8445 0.5355 4.8073 152.2322)" class="st4" width="3.6" height="3.6"/>
	<circle class="st3" cx="31.4" cy="98.5" r="2"/>
	<circle class="st0" cx="147.6" cy="58.9" r="2"/>
	<circle class="st3" cx="105.9" cy="87.4" r="2"/>
	<circle class="st2" cx="96" cy="69.2" r="2"/>
	<circle class="st0" cx="74.5" cy="76.6" r="2"/>
	<path class="st3" d="M145.3,100.4c-0.3,0-0.7,0-1-0.1c-1.3-0.4-2.3-1.4-2.6-2.6c-0.9-2.4-2.8-2.1-3.3-2c-0.8,0.2-1.6-0.2-1.9-1
		s0.2-1.6,1-1.8c3-0.9,6.1,0.8,7,3.8c0,0,0,0,0,0.1c0.2,0.6,0.5,0.7,0.6,0.7c0.9,0.2,2.6-0.8,3.6-1.6c0.6-0.5,1.6-0.5,2.1,0.2
		s0.5,1.6-0.2,2.1l0,0C150.1,98.5,147.7,100.4,145.3,100.4z"/>
	<path class="st2" d="M29.6,73.5c-0.3-0.2-0.7-0.3-1-0.3c-1.3-0.2-2.6,0.2-3.5,1.1c-1.9,1.8-3.4,0.7-3.9,0.3
		c-0.7-0.5-1.6-0.3-2.1,0.3c-0.4,0.6-0.4,1.3,0.1,1.8c2.2,2.1,5.8,2,7.9-0.2c0,0,0,0,0.1-0.1C27.7,76,28,76,28.1,76
		c0.9,0.2,2,1.9,2.5,3.1c0.3,0.8,1.2,1.1,2,0.8c0.8-0.3,1.1-1.2,0.8-1.9l0,0C33,77.4,31.7,74.6,29.6,73.5z"/>
	<path class="st3" d="M90.5,77l2.2,4.4c0.1,0.2,0.2,0.3,0.4,0.3l4.9,0.7c0.3,0,0.5,0.3,0.5,0.6c0,0.1-0.1,0.2-0.2,0.3l-3.5,3.4
		c-0.1,0.1-0.2,0.3-0.2,0.5l0.8,4.8c0.1,0.3-0.1,0.6-0.4,0.6c-0.1,0-0.2,0-0.4-0.1l-4.3-2.3c-0.2-0.1-0.4-0.1-0.5,0l-4.3,2.3
		c-0.3,0.1-0.6,0-0.7-0.2c-0.1-0.1-0.1-0.2-0.1-0.4l0.8-4.8c0-0.2,0-0.4-0.2-0.5l-3.5-3.5c-0.2-0.2-0.2-0.6,0-0.8
		c0.1-0.1,0.2-0.1,0.3-0.2l4.9-0.7c0.2,0,0.3-0.1,0.4-0.3l2.2-4.4c0.1-0.3,0.5-0.4,0.7-0.2C90.4,76.8,90.4,76.8,90.5,77z"/>
	<circle class="st5" cx="56.6" cy="134.8" r="15"/>
	<path class="st6" d="M52.7,133.9c-1.8,0-3.2-1.4-3.2-3.2c0-1.8,1.4-3.2,3.2-3.2c1.8,0,3.2,1.4,3.2,3.2l0,0
		C55.8,132.4,54.4,133.9,52.7,133.9z M52.7,129.7c-0.6,0-1,0.4-1,1s0.4,1,1,1s1-0.4,1-1S53.2,129.7,52.7,129.7z"/>
	<path class="st6" d="M60.4,142.1c-1.8,0-3.2-1.5-3.1-3.2c0-1.8,1.5-3.2,3.2-3.1c1.7,0,3.1,1.4,3.1,3.2
		C63.7,140.6,62.2,142.1,60.4,142.1C60.5,142.1,60.5,142.1,60.4,142.1z M60.4,137.9c-0.6,0-1,0.4-1,1s0.4,1,1,1s1-0.4,1-1
		C61.5,138.3,61,137.9,60.4,137.9C60.5,137.9,60.4,137.9,60.4,137.9L60.4,137.9z"/>
	<path class="st6" d="M52.1,141.9c-0.5-0.3-0.7-1-0.3-1.5c0,0,0,0,0,0l7.8-12.4c0.3-0.5,1-0.7,1.5-0.3s0.7,1,0.3,1.5l0,0l-7.8,12.4
		C53.3,142.1,52.6,142.2,52.1,141.9C52.1,141.9,52.1,141.9,52.1,141.9z"/>
	<path class="st0" d="M119.7,92.1l-8.2,2.4c-0.8,0.2-1.4,1-1.4,1.9l-0.1,8.5c0,0.6,0.3,1.2,0.8,1.6l14.2,10.7
		c0.9,0.7,2.1,0.5,2.8-0.4L136,106c0.7-0.9,0.5-2.1-0.4-2.8l-14.1-10.7C121,92.1,120.3,91.9,119.7,92.1z M117.3,100.4
		c-0.7,0.9-2,1.1-2.9,0.4s-1.1-2-0.4-2.9s2-1.1,2.9-0.4c0,0,0,0,0,0C117.9,98.2,118.1,99.5,117.3,100.4
		C117.4,100.4,117.4,100.5,117.3,100.4L117.3,100.4z"/>
</g>
</svg>
