<?xml version="1.0" encoding="UTF-8"?>
<svg width="24px" height="24px" viewBox="0 0 24 24" version="1.1" xmlns="http://www.w3.org/2000/svg" xmlns:xlink="http://www.w3.org/1999/xlink">
    <!-- Generator: Sketch 51.2 (57519) - http://www.bohemiancoding.com/sketch -->
    <title>Rectangle 8</title>
    <desc>Created with Sketch.</desc>
    <defs>
        <rect id="path-1" x="90" y="155" width="1160" height="827" rx="5"></rect>
        <filter x="-1.0%" y="-0.7%" width="102.1%" height="102.9%" filterUnits="objectBoundingBox" id="filter-2">
            <feOffset dx="0" dy="6" in="SourceAlpha" result="shadowOffsetOuter1"></feOffset>
            <feGaussianBlur stdDeviation="3" in="shadowOffsetOuter1" result="shadowBlurOuter1"></feGaussianBlur>
            <feColorMatrix values="0 0 0 0 0   0 0 0 0 0   0 0 0 0 0  0 0 0 0.1 0" type="matrix" in="shadowBlurOuter1"></feColorMatrix>
        </filter>
    </defs>
    <g id="Page-1" stroke="none" stroke-width="1" fill="none" fill-rule="evenodd">
        <g id="20a.-Admin-Table-01" transform="translate(-490.000000, -167.000000)">
            <rect fill="#E1E8ED" x="0" y="0" width="1280" height="1024"></rect>
            <g id="Rectangle-24">
                <use fill="black" fill-opacity="1" filter="url(#filter-2)" xlink:href="#path-1"></use>
                <use fill="#FFFFFF" fill-rule="evenodd" xlink:href="#path-1"></use>
            </g>
            <g id="icon-envelope" transform="translate(490.000000, 167.000000)">
                <g>
                    <rect id="Rectangle-8" x="0" y="0" width="24" height="24"></rect>
                    <path d="M21.6210937,9.13657407 C21.7734375,9.01099537 22,9.12847222 22,9.32696759 L22,17.6111111 C22,18.6846065 21.1601562,19.5555556 20.125,19.5555556 L3.875,19.5555556 C2.83984375,19.5555556 2,18.6846065 2,17.6111111 L2,9.33101852 C2,9.12847222 2.22265625,9.0150463 2.37890625,9.140625 C3.25390625,9.84548611 4.4140625,10.7407407 8.3984375,13.7424769 C9.22265625,14.3663194 10.6132812,15.6788194 12,15.6707176 C13.3945312,15.6828704 14.8125,14.3420139 15.6054687,13.7424769 C19.5898437,10.7407407 20.7460937,9.84143519 21.6210937,9.13657407 Z M12,14.3703704 C12.90625,14.3865741 14.2109375,13.1875 14.8671875,12.693287 C20.0507812,8.79224537 20.4453125,8.45196759 21.640625,7.47974537 C21.8671875,7.2974537 22,7.01388889 22,6.71412037 L22,5.94444444 C22,4.87094907 21.1601562,4 20.125,4 L3.875,4 C2.83984375,4 2,4.87094907 2,5.94444444 L2,6.71412037 C2,7.01388889 2.1328125,7.29340278 2.359375,7.47974537 C3.5546875,8.44791667 3.94921875,8.79224537 9.1328125,12.693287 C9.7890625,13.1875 11.09375,14.3865741 12,14.3703704 Z" id="Shape" fill="#7D909A" fill-rule="nonzero"></path>
                </g>
            </g>
        </g>
    </g>
</svg>